<?xml version="1.0" encoding="UTF-8"?>
<svg width="25px" height="36px" viewBox="0 0 25 36" version="1.1" xmlns="http://www.w3.org/2000/svg" xmlns:xlink="http://www.w3.org/1999/xlink">
    <!-- Generator: Sketch 52.6 (67491) - http://www.bohemiancoding.com/sketch -->
    <title>location_grey</title>
    <desc>Created with Sketch.</desc>
    <g id="Page-1" stroke="none" stroke-width="1" fill="none" fill-rule="evenodd">
        <g id="location_grey">
            <path d="M12.5,0 C5.60402778,0 0,5.60416667 0,12.5 C0,14.8333333 0.645972222,17.1042361 1.87506944,19.0625694 L11.6526389,35.0635417 C11.8194444,35.334375 12.0694444,35.5011111 12.3611806,35.5427778 C12.756875,35.6052083 13.1945833,35.4386111 13.4236806,35.0427778 L23.2292361,18.8958333 C24.3957639,16.9792361 25,14.7500694 25,12.5 C25,5.60416667 19.3959722,0 12.5,0 Z M12.5,18.75 C9.00013889,18.75 6.25,15.9166667 6.25,12.5 C6.25,9.06243056 9.06243056,6.25 12.5,6.25 C15.9375694,6.25 18.75,9.06243056 18.75,12.5 C18.75,15.8958333 16.0415972,18.75 12.5,18.75 Z" id="Shape" fill="#444444" fill-rule="nonzero"></path>
            <path d="M12.5,0 L12.5,6.25 C15.9375694,6.25 18.75,9.06243056 18.75,12.5 C18.75,15.8958333 16.0415972,18.75 12.5,18.75 L12.5,35.5552172 C12.8554861,35.5631944 13.2210417,35.3927778 13.4236111,35.0427778 L23.2291667,18.8958333 C24.3957639,16.9792361 25,14.7500694 25,12.5 C25,5.60416667 19.3959722,0 12.5,0 Z" id="Path" fill-opacity="0.332435" fill="#000000"></path>
        </g>
    </g>
</svg>